./data/persons_processed/person2/2_1.jpeg;0
./data/persons_processed/person2/2_2.jpeg;0
./data/persons_processed/person2/2_6.jpeg;0
./data/persons_processed/person2/2_3.jpeg;0
./data/persons_processed/person2/2_4.jpeg;0
./data/persons_processed/person2/2_7.jpeg;0
./data/persons_processed/person2/2_0.jpeg;0
./data/persons_processed/person2/2_5.jpeg;0
./data/persons_processed/person4/4_0.jpeg;1
./data/persons_processed/person4/4_2.jpeg;1
./data/persons_processed/person4/4_4.jpeg;1
./data/persons_processed/person4/4_3.jpeg;1
./data/persons_processed/person4/4_5.jpeg;1
./data/persons_processed/person4/4_1.jpeg;1
./data/persons_processed/person4/4_6.jpeg;1
./data/persons_processed/person11/11_5.jpeg;2
./data/persons_processed/person11/11_10.jpeg;2
./data/persons_processed/person11/11_9.jpeg;2
./data/persons_processed/person11/11_3.jpeg;2
./data/persons_processed/person11/11_2.jpeg;2
./data/persons_processed/person11/11_4.jpeg;2
./data/persons_processed/person11/11_6.jpeg;2
./data/persons_processed/person11/11_0.jpeg;2
./data/persons_processed/person11/11_8.jpeg;2
./data/persons_processed/person11/11_7.jpeg;2
./data/persons_processed/person0/0_7.jpeg;3
./data/persons_processed/person0/0_2.jpeg;3
./data/persons_processed/person0/0_3.jpeg;3
./data/persons_processed/person0/0_1.jpeg;3
./data/persons_processed/person0/0_5.jpeg;3
./data/persons_processed/person0/0_9.jpeg;3
./data/persons_processed/person0/0_6.jpeg;3
./data/persons_processed/person0/0_4.jpeg;3
./data/persons_processed/person0/0_8.jpeg;3
./data/persons_processed/person0/0_0.jpeg;3
./data/persons_processed/person5/5_0.jpeg;4
./data/persons_processed/person5/5_4.jpeg;4
./data/persons_processed/person5/5_1.jpeg;4
./data/persons_processed/person5/5_2.jpeg;4
./data/persons_processed/person5/5_3.jpeg;4
./data/persons_processed/person3/3_3.jpeg;5
./data/persons_processed/person3/3_4.jpeg;5
./data/persons_processed/person3/3_9.jpeg;5
./data/persons_processed/person3/3_1.jpeg;5
./data/persons_processed/person3/3_0.jpeg;5
./data/persons_processed/person3/3_7.jpeg;5
./data/persons_processed/person3/3_2.jpeg;5
./data/persons_processed/person3/3_5.jpeg;5
./data/persons_processed/person3/3_8.jpeg;5
./data/persons_processed/person3/3_6.jpeg;5
./data/persons_processed/person7/7_0.jpeg;6
./data/persons_processed/person7/7_7.jpeg;6
./data/persons_processed/person7/7_1.jpeg;6
./data/persons_processed/person7/7_4.jpeg;6
./data/persons_processed/person7/7_2.jpeg;6
./data/persons_processed/person7/7_5.jpeg;6
./data/persons_processed/person7/7_6.jpeg;6
./data/persons_processed/person7/7_3.jpeg;6
./data/persons_processed/person1/1_4.jpeg;7
./data/persons_processed/person1/1_1.jpeg;7
./data/persons_processed/person1/1_3.jpeg;7
./data/persons_processed/person1/1_5.jpeg;7
./data/persons_processed/person1/1_6.jpeg;7
./data/persons_processed/person1/1_8.jpeg;7
./data/persons_processed/person1/1_7.jpeg;7
./data/persons_processed/person1/1_2.jpeg;7
./data/persons_processed/person1/1_0.jpeg;7
./data/persons_processed/person6/6_7.jpeg;8
./data/persons_processed/person6/6_4.jpeg;8
./data/persons_processed/person6/6_6.jpeg;8
./data/persons_processed/person6/6_3.jpeg;8
./data/persons_processed/person6/6_2.jpeg;8
./data/persons_processed/person6/6_5.jpeg;8
./data/persons_processed/person6/6_0.jpeg;8
./data/persons_processed/person6/6_1.jpeg;8
./data/persons_processed/person10/10_2.jpeg;9
./data/persons_processed/person10/10_6.jpeg;9
./data/persons_processed/person10/10_7.jpeg;9
./data/persons_processed/person10/10_4.jpeg;9
./data/persons_processed/person10/10_8.jpeg;9
./data/persons_processed/person10/10_1.jpeg;9
./data/persons_processed/person10/10_0.jpeg;9
./data/persons_processed/person10/10_9.jpeg;9
./data/persons_processed/person10/10_3.jpeg;9
./data/persons_processed/person10/10_5.jpeg;9
./data/persons_processed/person9/9_1.jpeg;10
./data/persons_processed/person9/9_0.jpeg;10
./data/persons_processed/person9/9_2.jpeg;10
./data/persons_processed/person8/8_2.jpeg;11
./data/persons_processed/person8/8_6.jpeg;11
./data/persons_processed/person8/8_4.jpeg;11
./data/persons_processed/person8/8_9.jpeg;11
./data/persons_processed/person8/8_5.jpeg;11
./data/persons_processed/person8/8_3.jpeg;11
./data/persons_processed/person8/8_7.jpeg;11
./data/persons_processed/person8/8_0.jpeg;11
./data/persons_processed/person8/8_1.jpeg;11
./data/persons_processed/person8/8_8.jpeg;11
